<?xml version="1.0" encoding="UTF-8" standalone="no"?>
<!-- Created with Inkscape (http://www.inkscape.org/) -->

<svg
   width="356.53198mm"
   height="133.78441mm"
   viewBox="0 0 356.53198 133.78441"
   version="1.1"
   id="svg5"
   inkscape:version="1.1.2 (0a00cf5339, 2022-02-04, custom)"
   sodipodi:docname="example_tree.svg"
   xmlns:inkscape="http://www.inkscape.org/namespaces/inkscape"
   xmlns:sodipodi="http://sodipodi.sourceforge.net/DTD/sodipodi-0.dtd"
   xmlns="http://www.w3.org/2000/svg"
   xmlns:svg="http://www.w3.org/2000/svg">
  <sodipodi:namedview
     id="namedview7"
     pagecolor="#ffffff"
     bordercolor="#666666"
     borderopacity="1.0"
     inkscape:pageshadow="2"
     inkscape:pageopacity="0.0"
     inkscape:pagecheckerboard="0"
     inkscape:document-units="mm"
     showgrid="false"
     inkscape:snap-global="true"
     inkscape:snap-midpoints="true"
     fit-margin-top="20"
     lock-margins="true"
     fit-margin-left="20"
     fit-margin-right="20"
     fit-margin-bottom="20"
     inkscape:zoom="0.66903058"
     inkscape:cx="573.21745"
     inkscape:cy="396.84285"
     inkscape:current-layer="layer1" />
  <defs
     id="defs2" />
  <g
     inkscape:label="Layer 1"
     inkscape:groupmode="layer"
     id="layer1"
     transform="translate(46.552089,-26.161549)">
    <text
       xml:space="preserve"
       style="font-size:7.05556px;line-height:30px;font-family:'Linux Biolinum';-inkscape-font-specification:'Linux Biolinum';text-align:center;writing-mode:lr-tb;text-anchor:middle;fill:none;stroke-width:1;stroke-linecap:round;stroke-linejoin:round"
       x="63.644558"
       y="-203.7222"
       id="text7132"><tspan
         sodipodi:role="line"
         id="tspan7130"
         style="stroke-width:1"
         x="63.644558"
         y="-203.7222" /></text>
    <path
       style="fill:none;fill-rule:evenodd;stroke:#000000;stroke-width:1;stroke-linecap:butt;stroke-linejoin:miter;stroke-opacity:1"
       d="m -80.284493,-106.17726 7.409096,-13.52052"
       id="path29979" />
    <path
       style="fill:none;fill-rule:evenodd;stroke:#000000;stroke-width:1;stroke-linecap:butt;stroke-linejoin:miter;stroke-opacity:1"
       d="m -55.001174,-119.69778 7.409093,13.52052"
       id="path29981" />
    <g
       id="g57007"
       transform="translate(-33.033749,-242.25717)">
      <path
         id="path29388-1-4"
         style="fill:none;fill-rule:evenodd;stroke:#000000;stroke-width:0.999999"
         d="m -39.326659,159.17769 c 2.396853,0 5.930298,0.26546 4.326449,-4.32025 l -5.056437,-14.45727 c -0.790286,-2.25959 -1.929596,-4.32026 -4.326449,-4.32026 h -5.735296 c -2.396853,0 -3.536161,2.06067 -4.326448,4.32026 l -5.056437,14.45727 c -1.603849,4.58571 1.929596,4.32025 4.32645,4.32025 z"
         sodipodi:nodetypes="cssccsscc" />
      <text
         xml:space="preserve"
         style="font-size:9.04288px;line-height:19.225px;font-family:'Linux Biolinum';-inkscape-font-specification:'Linux Biolinum';text-align:center;writing-mode:lr-tb;text-anchor:middle;fill:none;stroke-width:1;stroke-linecap:round;stroke-linejoin:round"
         x="-47.358921"
         y="152.17622"
         id="text32627"><tspan
           sodipodi:role="line"
           id="tspan32625"
           style="fill:#000000;stroke-width:1"
           x="-47.358921"
           y="152.17622">≤10</tspan></text>
    </g>
    <g
       id="g57012"
       transform="translate(-33.033749,-242.25717)">
      <path
         id="path29388-94-5"
         style="fill:none;fill-rule:evenodd;stroke:#000000;stroke-width:0.999999"
         d="m -6.634247,159.17769 c 2.396853,0 5.930298,0.26546 4.326449,-4.32025 l -5.056437,-14.45727 c -0.790286,-2.25959 -1.929596,-4.32026 -4.326449,-4.32026 h -5.735296 c -2.396853,0 -3.536161,2.06067 -4.326448,4.32026 l -5.056437,14.45727 c -1.603849,4.58571 1.929596,4.32025 4.32645,4.32025 z"
         sodipodi:nodetypes="cssccsscc" />
      <text
         xml:space="preserve"
         style="font-size:9.04288px;line-height:19.225px;font-family:'Linux Biolinum';-inkscape-font-specification:'Linux Biolinum';text-align:center;writing-mode:lr-tb;text-anchor:middle;fill:none;stroke-width:1;stroke-linecap:round;stroke-linejoin:round"
         x="-14.666511"
         y="152.17622"
         id="text32627-1"><tspan
           sodipodi:role="line"
           id="tspan32625-0"
           style="fill:#000000;stroke-width:1"
           x="-14.666511"
           y="152.17622">≥10</tspan></text>
    </g>
    <path
       style="fill:none;fill-rule:evenodd;stroke:#000000;stroke-width:1;stroke-linecap:butt;stroke-linejoin:miter;stroke-opacity:1"
       d="m 13.148306,-119.69777 -14.818188,13.52051"
       id="path29983" />
    <path
       style="fill:none;fill-rule:evenodd;stroke:#000000;stroke-width:1;stroke-linecap:butt;stroke-linejoin:miter;stroke-opacity:1"
       d="m 31.022528,-119.69777 v 13.52051"
       id="path29985" />
    <path
       style="fill:none;fill-rule:evenodd;stroke:#000000;stroke-width:1;stroke-linecap:butt;stroke-linejoin:miter;stroke-opacity:1"
       d="m 48.896748,-119.69777 14.81819,13.52051"
       id="path29987" />
    <g
       id="g57017"
       transform="translate(-71.333612,-242.25717)">
      <path
         id="path29388-1-0"
         style="fill:none;fill-rule:evenodd;stroke:#000000;stroke-width:0.999999"
         d="m 77.587815,159.17769 c 2.396853,0 5.930298,0.26545 4.326449,-4.32024 l -5.056437,-14.45728 c -0.790286,-2.25958 -1.929596,-4.32026 -4.326449,-4.32026 h -5.735296 c -2.396853,0 -3.536161,2.06067 -4.326448,4.32025 l -5.056437,14.45728 c -1.603849,4.5857 1.929596,4.32025 4.32645,4.32025 z"
         sodipodi:nodetypes="cssccsscc" />
      <text
         xml:space="preserve"
         style="font-size:9.04288px;line-height:19.225px;font-family:'Linux Biolinum';-inkscape-font-specification:'Linux Biolinum';text-align:center;writing-mode:lr-tb;text-anchor:middle;fill:none;stroke-width:1;stroke-linecap:round;stroke-linejoin:round"
         x="69.55555"
         y="152.17622"
         id="text32627-6"><tspan
           sodipodi:role="line"
           id="tspan32625-3"
           style="fill:#000000;stroke-width:1"
           x="69.55555"
           y="152.17622">≤10</tspan></text>
    </g>
    <g
       id="g57023"
       transform="translate(-71.333612,-242.25717)">
      <path
         id="path29388-94-3"
         style="fill:none;fill-rule:evenodd;stroke:#000000;stroke-width:0.999999"
         d="m 110.28023,159.17769 c 2.39685,0 5.9303,0.26545 4.32645,-4.32024 l -5.05644,-14.45728 c -0.79029,-2.25958 -1.9296,-4.32025 -4.32645,-4.32025 h -5.735296 c -2.396853,0 -3.536161,2.06067 -4.326448,4.32025 l -5.056437,14.45728 c -1.603849,4.5857 1.929596,4.32024 4.32645,4.32024 z"
         sodipodi:nodetypes="cssccsscc" />
      <text
         xml:space="preserve"
         style="font-size:9.04288px;line-height:9px;font-family:'Linux Biolinum';-inkscape-font-specification:'Linux Biolinum';text-align:center;writing-mode:lr-tb;text-anchor:middle;fill:none;stroke-width:1;stroke-linecap:round;stroke-linejoin:round"
         x="102.24796"
         y="147.67622"
         id="text32627-2"><tspan
           sodipodi:role="line"
           id="tspan32625-06"
           style="fill:#000000;stroke-width:1"
           x="102.24796"
           y="147.67622">≥10</tspan><tspan
           sodipodi:role="line"
           style="fill:#000000;stroke-width:1"
           x="102.24796"
           y="156.67622"
           id="tspan39671">≤20</tspan></text>
    </g>
    <g
       id="g57028"
       transform="translate(-71.333612,-242.25717)">
      <path
         id="path29388-7-6"
         style="fill:none;fill-rule:evenodd;stroke:#000000;stroke-width:0.999999"
         d="m 142.97263,159.17769 c 2.39686,0 5.93031,0.26545 4.32645,-4.32024 l -5.05644,-14.45728 c -0.79028,-2.25958 -1.92959,-4.32025 -4.32644,-4.32025 h -5.7353 c -2.39685,0 -3.53616,2.06067 -4.32645,4.32025 l -5.05643,14.45728 c -1.60385,4.5857 1.92959,4.32024 4.32645,4.32024 z"
         sodipodi:nodetypes="cssccsscc" />
      <text
         xml:space="preserve"
         style="font-size:9.04288px;line-height:19.225px;font-family:'Linux Biolinum';-inkscape-font-specification:'Linux Biolinum';text-align:center;writing-mode:lr-tb;text-anchor:middle;fill:none;stroke-width:1;stroke-linecap:round;stroke-linejoin:round"
         x="134.94037"
         y="152.17622"
         id="text32627-15"><tspan
           sodipodi:role="line"
           id="tspan32625-5"
           style="fill:#000000;stroke-width:1"
           x="134.94037"
           y="152.17622">≥20</tspan></text>
    </g>
    <path
       style="fill:none;fill-rule:evenodd;stroke:#000000;stroke-width:1;stroke-linecap:butt;stroke-linejoin:miter;stroke-opacity:1"
       d="m 131.86442,-119.69778 -22.22728,13.52052"
       id="path29989" />
    <path
       style="fill:none;fill-rule:evenodd;stroke:#000000;stroke-width:1;stroke-linecap:butt;stroke-linejoin:miter;stroke-opacity:1"
       d="m 149.73864,-119.69778 -7.4091,13.52052"
       id="path29991" />
    <path
       style="fill:none;fill-rule:evenodd;stroke:#000000;stroke-width:1;stroke-linecap:butt;stroke-linejoin:miter;stroke-opacity:1"
       d="m 167.61286,-119.69778 7.40909,13.52052"
       id="path29993" />
    <path
       style="fill:none;fill-rule:evenodd;stroke:#000000;stroke-width:1;stroke-linecap:butt;stroke-linejoin:miter;stroke-opacity:1"
       d="m 185.48709,-119.69778 22.22727,13.52052"
       id="path29995" />
    <g
       id="g57033"
       transform="translate(-81.000655,-242.25717)">
      <path
         id="path29388-1"
         style="fill:none;fill-rule:evenodd;stroke:#000000;stroke-width:0.999999"
         d="m 198.56188,159.17769 c 2.39685,0 5.9303,0.26545 4.32645,-4.32024 l -5.05644,-14.45729 c -0.79028,-2.25958 -1.92959,-4.32025 -4.32645,-4.32025 h -5.73529 c -2.39686,0 -3.53616,2.06067 -4.32645,4.32025 l -5.05644,14.45728 c -1.60385,4.5857 1.9296,4.32025 4.32645,4.32025 z"
         sodipodi:nodetypes="cssccsscc" />
      <text
         xml:space="preserve"
         style="font-size:9.04288px;line-height:19.225px;font-family:'Linux Biolinum';-inkscape-font-specification:'Linux Biolinum';text-align:center;writing-mode:lr-tb;text-anchor:middle;fill:none;stroke-width:1;stroke-linecap:round;stroke-linejoin:round"
         x="190.52962"
         y="152.17622"
         id="text32627-4"><tspan
           sodipodi:role="line"
           id="tspan32625-7"
           style="fill:#000000;stroke-width:1"
           x="190.52962"
           y="152.17622">≤10</tspan></text>
    </g>
    <g
       id="g57039"
       transform="translate(-81.000655,-242.25717)">
      <path
         id="path29388-94"
         style="fill:none;fill-rule:evenodd;stroke:#000000;stroke-width:0.999999"
         d="m 231.25429,159.17769 c 2.39686,0 5.9303,0.26545 4.32645,-4.32024 l -5.05644,-14.45729 c -0.79028,-2.25958 -1.92959,-4.32025 -4.32645,-4.32025 h -5.73529 c -2.39685,0 -3.53616,2.06067 -4.32645,4.32025 l -5.05644,14.45728 c -1.60384,4.5857 1.9296,4.32025 4.32645,4.32025 z"
         sodipodi:nodetypes="cssccsscc" />
      <text
         xml:space="preserve"
         style="font-size:9.04288px;line-height:9px;font-family:'Linux Biolinum';-inkscape-font-specification:'Linux Biolinum';text-align:center;writing-mode:lr-tb;text-anchor:middle;fill:none;stroke-width:1;stroke-linecap:round;stroke-linejoin:round"
         x="223.22203"
         y="147.67622"
         id="text32627-65"><tspan
           sodipodi:role="line"
           id="tspan32625-6"
           style="fill:#000000;stroke-width:1"
           x="223.22203"
           y="147.67622">≥10</tspan><tspan
           sodipodi:role="line"
           style="fill:#000000;stroke-width:1"
           x="223.22203"
           y="156.67622"
           id="tspan45891">≤20</tspan></text>
    </g>
    <g
       id="g57045"
       transform="translate(-81.000655,-242.25717)">
      <path
         id="path29388-7"
         style="fill:none;fill-rule:evenodd;stroke:#000000;stroke-width:0.999999"
         d="m 263.9467,159.17769 c 2.39686,0 5.9303,0.26545 4.32645,-4.32024 l -5.05644,-14.45728 c -0.79028,-2.25958 -1.92959,-4.32025 -4.32645,-4.32025 h -5.73529 c -2.39686,0 -3.53617,2.06067 -4.32645,4.32025 l -5.05644,14.45728 c -1.60385,4.5857 1.9296,4.32024 4.32645,4.32024 z"
         sodipodi:nodetypes="cssccsscc" />
      <text
         xml:space="preserve"
         style="font-size:9.04288px;line-height:9px;font-family:'Linux Biolinum';-inkscape-font-specification:'Linux Biolinum';text-align:center;writing-mode:lr-tb;text-anchor:middle;fill:none;stroke-width:1;stroke-linecap:round;stroke-linejoin:round"
         x="255.91443"
         y="147.67622"
         id="text32627-9"><tspan
           sodipodi:role="line"
           id="tspan32625-37"
           style="fill:#000000;stroke-width:1"
           x="255.91443"
           y="147.67622">≥20</tspan><tspan
           sodipodi:role="line"
           style="fill:#000000;stroke-width:1"
           x="255.91443"
           y="156.67622"
           id="tspan47231">≤30</tspan></text>
    </g>
    <g
       id="g57050"
       transform="translate(-81.000655,-242.25717)">
      <path
         id="path29388-8"
         style="fill:none;fill-rule:evenodd;stroke:#000000;stroke-width:0.999999"
         d="m 296.63911,159.17769 c 2.39685,0 5.9303,0.26545 4.32645,-4.32024 l -5.05644,-14.45728 c -0.79028,-2.25958 -1.92959,-4.32025 -4.32645,-4.32025 h -5.73529 c -2.39686,0 -3.53616,2.06067 -4.32645,4.32025 l -5.05644,14.45728 c -1.60385,4.5857 1.9296,4.32024 4.32645,4.32024 z"
         sodipodi:nodetypes="cssccsscc" />
      <text
         xml:space="preserve"
         style="font-size:9.04288px;line-height:19.225px;font-family:'Linux Biolinum';-inkscape-font-specification:'Linux Biolinum';text-align:center;writing-mode:lr-tb;text-anchor:middle;fill:none;stroke-width:1;stroke-linecap:round;stroke-linejoin:round"
         x="288.60684"
         y="152.17624"
         id="text32627-45"><tspan
           sodipodi:role="line"
           id="tspan32625-2"
           style="fill:#000000;stroke-width:1"
           x="288.60684"
           y="152.17624">≥30</tspan></text>
    </g>
    <text
       xml:space="preserve"
       style="font-size:9.87778px;line-height:21px;font-family:'Linux Biolinum';-inkscape-font-specification:'Linux Biolinum';text-align:center;writing-mode:lr-tb;text-anchor:middle;fill:#000000;stroke-width:1;stroke-linecap:round;stroke-linejoin:round"
       x="-64.215614"
       y="-154.19461"
       id="text58273"><tspan
         sodipodi:role="line"
         id="tspan58271"
         style="font-size:9.87778px;stroke-width:1"
         x="-64.215614"
         y="-154.19461">une valeur</tspan></text>
    <text
       xml:space="preserve"
       style="font-size:9.87777px;line-height:30px;font-family:'Linux Biolinum';-inkscape-font-specification:'Linux Biolinum';text-align:center;writing-mode:lr-tb;text-anchor:middle;fill:#000000;stroke-width:1;stroke-linecap:round;stroke-linejoin:round"
       x="30.979122"
       y="-154.19461"
       id="text62999"><tspan
         sodipodi:role="line"
         id="tspan62997"
         style="stroke-width:1"
         x="30.979124"
         y="-154.19461">deux valeurs</tspan></text>
    <text
       xml:space="preserve"
       style="font-size:9.87777px;line-height:30px;font-family:'Linux Biolinum';-inkscape-font-specification:'Linux Biolinum';text-align:center;writing-mode:lr-tb;text-anchor:middle;fill:#000000;stroke-width:1;stroke-linecap:round;stroke-linejoin:round"
       x="158.78909"
       y="-154.19467"
       id="text64037"><tspan
         sodipodi:role="line"
         id="tspan64035"
         style="stroke-width:1"
         x="158.78909"
         y="-154.19467">trois valeurs</tspan><tspan
         sodipodi:role="line"
         style="stroke-width:1"
         x="158.78909"
         y="-124.19467"
         id="tspan64039" /></text>
    <g
       id="g27167"
       transform="translate(46.106073,21.436629)">
      <g
         id="g29944"
         transform="translate(-16.228013,-3.3909129)">
        <rect
           style="fill:none;fill-rule:evenodd;stroke:#000000;stroke-width:1;stroke-linecap:butt;stroke-linejoin:miter;stroke-opacity:1"
           id="rect846"
           width="17.874224"
           height="17.874224"
           x="94.769302"
           y="28.615833"
           ry="0" />
        <text
           xml:space="preserve"
           style="font-size:14.1111px;line-height:60px;font-family:'Linux Biolinum';-inkscape-font-specification:'Linux Biolinum';text-align:center;writing-mode:lr-tb;text-anchor:middle;fill:#000000;stroke-width:1;stroke-linecap:round;stroke-linejoin:round"
           x="103.2551"
           y="41.786964"
           id="text16310"><tspan
             sodipodi:role="line"
             id="tspan16308"
             style="font-size:14.1111px;fill:#000000;stroke-width:1"
             x="103.2551"
             y="41.786964">25</tspan></text>
      </g>
      <g
         id="g29944-7"
         transform="translate(-59.433077,71.519267)">
        <rect
           style="fill:none;fill-rule:evenodd;stroke:#000000;stroke-width:1;stroke-linecap:butt;stroke-linejoin:miter;stroke-opacity:1"
           id="rect846-5"
           width="17.874224"
           height="17.874224"
           x="94.769302"
           y="28.615833"
           ry="0" />
        <text
           xml:space="preserve"
           style="font-size:14.1111px;line-height:60px;font-family:'Linux Biolinum';-inkscape-font-specification:'Linux Biolinum';text-align:center;writing-mode:lr-tb;text-anchor:middle;fill:#000000;stroke-width:1;stroke-linecap:round;stroke-linejoin:round"
           x="103.2551"
           y="41.786964"
           id="text16310-92"><tspan
             sodipodi:role="line"
             id="tspan16308-2"
             style="font-size:14.1111px;fill:#000000;stroke-width:1"
             x="103.2551"
             y="41.786964">23</tspan></text>
      </g>
      <g
         id="g28376-3"
         transform="translate(-156.64008,-10.223733)">
        <rect
           style="fill:none;fill-rule:evenodd;stroke:#000000;stroke-width:1;stroke-linecap:butt;stroke-linejoin:miter;stroke-opacity:1"
           id="rect846-3-5"
           width="17.874224"
           height="17.874224"
           x="84.481918"
           y="110.35883"
           ry="0" />
        <rect
           style="fill:none;fill-rule:evenodd;stroke:#000000;stroke-width:1;stroke-linecap:butt;stroke-linejoin:miter;stroke-opacity:1"
           id="rect846-6-6"
           width="17.874224"
           height="17.874224"
           x="102.35614"
           y="110.35883"
           ry="0" />
        <text
           xml:space="preserve"
           style="font-size:14.1111px;line-height:60px;font-family:'Linux Biolinum';-inkscape-font-specification:'Linux Biolinum';text-align:center;writing-mode:lr-tb;text-anchor:middle;fill:#000000;stroke-width:1;stroke-linecap:round;stroke-linejoin:round"
           x="92.96772"
           y="123.52996"
           id="text16310-7-2"><tspan
             sodipodi:role="line"
             id="tspan16308-0-9"
             style="font-size:14.1111px;fill:#000000;stroke-width:1"
             x="92.96772"
             y="123.52996">1</tspan></text>
        <text
           xml:space="preserve"
           style="font-size:14.1111px;line-height:60px;font-family:'Linux Biolinum';-inkscape-font-specification:'Linux Biolinum';text-align:center;writing-mode:lr-tb;text-anchor:middle;fill:#000000;stroke-width:1;stroke-linecap:round;stroke-linejoin:round"
           x="111.2314"
           y="123.52996"
           id="text16310-9-1"><tspan
             sodipodi:role="line"
             id="tspan16308-3-2"
             style="font-size:14.1111px;fill:#000000;stroke-width:1"
             x="111.2314"
             y="123.52996">3</tspan></text>
      </g>
      <g
         id="g28376"
         transform="translate(-102.89289,-51.845775)">
        <rect
           style="fill:none;fill-rule:evenodd;stroke:#000000;stroke-width:1;stroke-linecap:butt;stroke-linejoin:miter;stroke-opacity:1"
           id="rect846-3"
           width="17.874224"
           height="17.874224"
           x="84.481918"
           y="110.35883"
           ry="0" />
        <rect
           style="fill:none;fill-rule:evenodd;stroke:#000000;stroke-width:1;stroke-linecap:butt;stroke-linejoin:miter;stroke-opacity:1"
           id="rect846-6"
           width="17.874224"
           height="17.874224"
           x="102.35614"
           y="110.35883"
           ry="0" />
        <text
           xml:space="preserve"
           style="font-size:14.1111px;line-height:60px;font-family:'Linux Biolinum';-inkscape-font-specification:'Linux Biolinum';text-align:center;writing-mode:lr-tb;text-anchor:middle;fill:#000000;stroke-width:1;stroke-linecap:round;stroke-linejoin:round"
           x="92.96772"
           y="123.52996"
           id="text16310-7"><tspan
             sodipodi:role="line"
             id="tspan16308-0"
             style="font-size:14.1111px;fill:#000000;stroke-width:1"
             x="92.96772"
             y="123.52996">7</tspan></text>
        <text
           xml:space="preserve"
           style="font-size:14.1111px;line-height:60px;font-family:'Linux Biolinum';-inkscape-font-specification:'Linux Biolinum';text-align:center;writing-mode:lr-tb;text-anchor:middle;fill:#000000;stroke-width:1;stroke-linecap:round;stroke-linejoin:round"
           x="111.2314"
           y="123.52996"
           id="text16310-9"><tspan
             sodipodi:role="line"
             id="tspan16308-3"
             style="font-size:14.1111px;fill:#000000;stroke-width:1"
             x="111.2314"
             y="123.52996">21</tspan></text>
      </g>
      <g
         id="g28368"
         transform="translate(80.897626,-116.37564)">
        <rect
           style="fill:none;fill-rule:evenodd;stroke:#000000;stroke-width:1;stroke-linecap:butt;stroke-linejoin:miter;stroke-opacity:1"
           id="rect846-3-7"
           width="17.874224"
           height="17.874224"
           x="58.847481"
           y="174.9577"
           ry="0" />
        <rect
           style="fill:none;fill-rule:evenodd;stroke:#000000;stroke-width:1;stroke-linecap:butt;stroke-linejoin:miter;stroke-opacity:1"
           id="rect846-6-5"
           width="17.874224"
           height="17.874224"
           x="76.721703"
           y="174.9577"
           ry="0" />
        <rect
           style="fill:none;fill-rule:evenodd;stroke:#000000;stroke-width:1;stroke-linecap:butt;stroke-linejoin:miter;stroke-opacity:1"
           id="rect846-3-3"
           width="17.874224"
           height="17.874224"
           x="94.595924"
           y="174.9577"
           ry="0" />
        <text
           xml:space="preserve"
           style="font-size:14.1111px;line-height:60px;font-family:'Linux Biolinum';-inkscape-font-specification:'Linux Biolinum';text-align:center;writing-mode:lr-tb;text-anchor:middle;fill:#000000;stroke-width:1;stroke-linecap:round;stroke-linejoin:round"
           x="67.333282"
           y="188.12883"
           id="text16310-6"><tspan
             sodipodi:role="line"
             id="tspan16308-06"
             style="font-size:14.1111px;fill:#000000;stroke-width:1"
             x="67.333282"
             y="188.12883">32</tspan></text>
        <text
           xml:space="preserve"
           style="font-size:14.1111px;line-height:60px;font-family:'Linux Biolinum';-inkscape-font-specification:'Linux Biolinum';text-align:center;writing-mode:lr-tb;text-anchor:middle;fill:#000000;stroke-width:1;stroke-linecap:round;stroke-linejoin:round"
           x="85.596962"
           y="188.12883"
           id="text16310-2"><tspan
             sodipodi:role="line"
             id="tspan16308-6"
             style="font-size:14.1111px;fill:#000000;stroke-width:1"
             x="85.596962"
             y="188.12883">57</tspan></text>
        <text
           xml:space="preserve"
           style="font-size:14.1111px;line-height:60px;font-family:'Linux Biolinum';-inkscape-font-specification:'Linux Biolinum';text-align:center;writing-mode:lr-tb;text-anchor:middle;fill:#000000;stroke-width:1;stroke-linecap:round;stroke-linejoin:round"
           x="103.4538"
           y="188.12886"
           id="text16310-1"><tspan
             sodipodi:role="line"
             id="tspan16308-8"
             style="font-size:14.1111px;fill:#000000;stroke-width:1"
             x="103.4538"
             y="188.12886">62</tspan></text>
      </g>
      <g
         id="g28368-2"
         transform="translate(-86.195559,-74.822602)">
        <rect
           style="fill:none;fill-rule:evenodd;stroke:#000000;stroke-width:1;stroke-linecap:butt;stroke-linejoin:miter;stroke-opacity:1"
           id="rect846-3-7-6"
           width="17.874224"
           height="17.874224"
           x="58.847481"
           y="174.9577"
           ry="0" />
        <rect
           style="fill:none;fill-rule:evenodd;stroke:#000000;stroke-width:1;stroke-linecap:butt;stroke-linejoin:miter;stroke-opacity:1"
           id="rect846-6-5-1"
           width="17.874224"
           height="17.874224"
           x="76.721703"
           y="174.9577"
           ry="0" />
        <rect
           style="fill:none;fill-rule:evenodd;stroke:#000000;stroke-width:1;stroke-linecap:butt;stroke-linejoin:miter;stroke-opacity:1"
           id="rect846-3-3-8"
           width="17.874224"
           height="17.874224"
           x="94.595924"
           y="174.9577"
           ry="0" />
        <text
           xml:space="preserve"
           style="font-size:14.1111px;line-height:60px;font-family:'Linux Biolinum';-inkscape-font-specification:'Linux Biolinum';text-align:center;writing-mode:lr-tb;text-anchor:middle;fill:#000000;stroke-width:1;stroke-linecap:round;stroke-linejoin:round"
           x="67.333282"
           y="188.12883"
           id="text16310-6-7"><tspan
             sodipodi:role="line"
             id="tspan16308-06-9"
             style="font-size:14.1111px;fill:#000000;stroke-width:1"
             x="67.333282"
             y="188.12883">11</tspan></text>
        <text
           xml:space="preserve"
           style="font-size:14.1111px;line-height:60px;font-family:'Linux Biolinum';-inkscape-font-specification:'Linux Biolinum';text-align:center;writing-mode:lr-tb;text-anchor:middle;fill:#000000;stroke-width:1;stroke-linecap:round;stroke-linejoin:round"
           x="85.596962"
           y="188.12883"
           id="text16310-2-2"><tspan
             sodipodi:role="line"
             id="tspan16308-6-0"
             style="font-size:14.1111px;fill:#000000;stroke-width:1"
             x="85.596962"
             y="188.12883">13</tspan></text>
        <text
           xml:space="preserve"
           style="font-size:14.1111px;line-height:60px;font-family:'Linux Biolinum';-inkscape-font-specification:'Linux Biolinum';text-align:center;writing-mode:lr-tb;text-anchor:middle;fill:#000000;stroke-width:1;stroke-linecap:round;stroke-linejoin:round"
           x="103.4538"
           y="188.12886"
           id="text16310-1-2"><tspan
             sodipodi:role="line"
             id="tspan16308-8-3"
             style="font-size:14.1111px;fill:#000000;stroke-width:1"
             x="103.4538"
             y="188.12886">20</tspan></text>
      </g>
      <g
         id="g29944-7-6"
         transform="translate(130.7303,71.519267)">
        <rect
           style="fill:none;fill-rule:evenodd;stroke:#000000;stroke-width:1;stroke-linecap:butt;stroke-linejoin:miter;stroke-opacity:1"
           id="rect846-5-32"
           width="17.874224"
           height="17.874224"
           x="94.769302"
           y="28.615833"
           ry="0" />
        <text
           xml:space="preserve"
           style="font-size:14.1111px;line-height:60px;font-family:'Linux Biolinum';-inkscape-font-specification:'Linux Biolinum';text-align:center;writing-mode:lr-tb;text-anchor:middle;fill:#000000;stroke-width:1;stroke-linecap:round;stroke-linejoin:round"
           x="103.2551"
           y="41.786964"
           id="text16310-92-0"><tspan
             sodipodi:role="line"
             id="tspan16308-2-6"
             style="font-size:14.1111px;fill:#000000;stroke-width:1"
             x="103.2551"
             y="41.786964">63</tspan></text>
      </g>
      <g
         id="g29944-7-9"
         transform="translate(40.223266,71.519267)">
        <rect
           style="fill:none;fill-rule:evenodd;stroke:#000000;stroke-width:1;stroke-linecap:butt;stroke-linejoin:miter;stroke-opacity:1"
           id="rect846-5-3"
           width="17.874224"
           height="17.874224"
           x="94.769302"
           y="28.615833"
           ry="0" />
        <text
           xml:space="preserve"
           style="font-size:14.1111px;line-height:60px;font-family:'Linux Biolinum';-inkscape-font-specification:'Linux Biolinum';text-align:center;writing-mode:lr-tb;text-anchor:middle;fill:#000000;stroke-width:1;stroke-linecap:round;stroke-linejoin:round"
           x="103.2551"
           y="41.786964"
           id="text16310-92-1"><tspan
             sodipodi:role="line"
             id="tspan16308-2-9"
             style="font-size:14.1111px;fill:#000000;stroke-width:1"
             x="103.2551"
             y="41.786964">42</tspan></text>
      </g>
      <g
         id="g28376-3-8"
         transform="translate(5.2571343,-10.223733)">
        <rect
           style="fill:none;fill-rule:evenodd;stroke:#000000;stroke-width:1;stroke-linecap:butt;stroke-linejoin:miter;stroke-opacity:1"
           id="rect846-3-5-9"
           width="17.874224"
           height="17.874224"
           x="84.481918"
           y="110.35883"
           ry="0" />
        <rect
           style="fill:none;fill-rule:evenodd;stroke:#000000;stroke-width:1;stroke-linecap:butt;stroke-linejoin:miter;stroke-opacity:1"
           id="rect846-6-6-7"
           width="17.874224"
           height="17.874224"
           x="102.35614"
           y="110.35883"
           ry="0" />
        <text
           xml:space="preserve"
           style="font-size:14.1111px;line-height:60px;font-family:'Linux Biolinum';-inkscape-font-specification:'Linux Biolinum';text-align:center;writing-mode:lr-tb;text-anchor:middle;fill:#000000;stroke-width:1;stroke-linecap:round;stroke-linejoin:round"
           x="92.96772"
           y="123.52996"
           id="text16310-7-2-3"><tspan
             sodipodi:role="line"
             id="tspan16308-0-9-6"
             style="font-size:14.1111px;fill:#000000;stroke-width:1"
             x="92.96772"
             y="123.52996">28</tspan></text>
        <text
           xml:space="preserve"
           style="font-size:14.1111px;line-height:60px;font-family:'Linux Biolinum';-inkscape-font-specification:'Linux Biolinum';text-align:center;writing-mode:lr-tb;text-anchor:middle;fill:#000000;stroke-width:1;stroke-linecap:round;stroke-linejoin:round"
           x="111.2314"
           y="123.52996"
           id="text16310-9-1-1"><tspan
             sodipodi:role="line"
             id="tspan16308-3-2-2"
             style="font-size:14.1111px;fill:#000000;stroke-width:1"
             x="111.2314"
             y="123.52996">31</tspan></text>
      </g>
      <g
         id="g28368-2-4"
         transform="translate(103.52438,-74.822602)">
        <rect
           style="fill:none;fill-rule:evenodd;stroke:#000000;stroke-width:1;stroke-linecap:butt;stroke-linejoin:miter;stroke-opacity:1"
           id="rect846-3-7-6-7"
           width="17.874224"
           height="17.874224"
           x="58.847481"
           y="174.9577"
           ry="0" />
        <rect
           style="fill:none;fill-rule:evenodd;stroke:#000000;stroke-width:1;stroke-linecap:butt;stroke-linejoin:miter;stroke-opacity:1"
           id="rect846-6-5-1-8"
           width="17.874224"
           height="17.874224"
           x="76.721703"
           y="174.9577"
           ry="0" />
        <rect
           style="fill:none;fill-rule:evenodd;stroke:#000000;stroke-width:1;stroke-linecap:butt;stroke-linejoin:miter;stroke-opacity:1"
           id="rect846-3-3-8-4"
           width="17.874224"
           height="17.874224"
           x="94.595924"
           y="174.9577"
           ry="0" />
        <text
           xml:space="preserve"
           style="font-size:14.1111px;line-height:60px;font-family:'Linux Biolinum';-inkscape-font-specification:'Linux Biolinum';text-align:center;writing-mode:lr-tb;text-anchor:middle;fill:#000000;stroke-width:1;stroke-linecap:round;stroke-linejoin:round"
           x="67.333282"
           y="188.12883"
           id="text16310-6-7-5"><tspan
             sodipodi:role="line"
             id="tspan16308-06-9-0"
             style="font-size:14.1111px;fill:#000000;stroke-width:1"
             x="67.333282"
             y="188.12883">58</tspan></text>
        <text
           xml:space="preserve"
           style="font-size:14.1111px;line-height:60px;font-family:'Linux Biolinum';-inkscape-font-specification:'Linux Biolinum';text-align:center;writing-mode:lr-tb;text-anchor:middle;fill:#000000;stroke-width:1;stroke-linecap:round;stroke-linejoin:round"
           x="85.596962"
           y="188.12883"
           id="text16310-2-2-3"><tspan
             sodipodi:role="line"
             id="tspan16308-6-0-6"
             style="font-size:14.1111px;fill:#000000;stroke-width:1"
             x="85.596962"
             y="188.12883">59</tspan></text>
        <text
           xml:space="preserve"
           style="font-size:14.1111px;line-height:60px;font-family:'Linux Biolinum';-inkscape-font-specification:'Linux Biolinum';text-align:center;writing-mode:lr-tb;text-anchor:middle;fill:#000000;stroke-width:1;stroke-linecap:round;stroke-linejoin:round"
           x="103.4538"
           y="188.12886"
           id="text16310-1-2-1"><tspan
             sodipodi:role="line"
             id="tspan16308-8-3-0"
             style="font-size:14.1111px;fill:#000000;stroke-width:1"
             x="103.4538"
             y="188.12886">60</tspan></text>
      </g>
      <path
         style="fill:none;fill-rule:evenodd;stroke:#000000;stroke-width:1;stroke-linecap:butt;stroke-linejoin:miter;stroke-opacity:1"
         d="M -54.28394,100.1351 -18.410971,76.387287"
         id="path1957" />
      <path
         style="fill:none;fill-rule:evenodd;stroke:#000000;stroke-width:1;stroke-linecap:butt;stroke-linejoin:miter;stroke-opacity:1"
         d="m -0.53674986,76.387287 4.34e-6,23.747813"
         id="path1959" />
      <path
         style="fill:none;fill-rule:evenodd;stroke:#000000;stroke-width:1;stroke-linecap:butt;stroke-linejoin:miter;stroke-opacity:1"
         d="M 17.337472,76.387287 44.273335,100.1351"
         id="path1963" />
      <path
         style="fill:none;fill-rule:evenodd;stroke:#000000;stroke-width:1;stroke-linecap:butt;stroke-linejoin:miter;stroke-opacity:1"
         d="M 139.7451,76.456282 107.61327,100.1351"
         id="path1965" />
      <path
         style="fill:none;fill-rule:evenodd;stroke:#000000;stroke-width:1;stroke-linecap:butt;stroke-linejoin:miter;stroke-opacity:1"
         d="M 157.61933,76.456282 143.92968,100.1351"
         id="path1967" />
      <path
         style="fill:none;fill-rule:evenodd;stroke:#000000;stroke-width:1;stroke-linecap:butt;stroke-linejoin:miter;stroke-opacity:1"
         d="M 175.49355,76.456282 189.18319,100.1351"
         id="path1969" />
      <path
         style="fill:none;fill-rule:evenodd;stroke:#000000;stroke-width:1;stroke-linecap:butt;stroke-linejoin:miter;stroke-opacity:1"
         d="M 193.36777,76.456282 234.43671,100.1351"
         id="path1971" />
      <path
         style="fill:none;fill-rule:evenodd;stroke:#000000;stroke-width:1;stroke-linecap:butt;stroke-linejoin:miter;stroke-opacity:1"
         d="M 78.541289,43.099145 -0.53674986,58.513059"
         id="path1973" />
      <path
         style="fill:none;fill-rule:evenodd;stroke:#000000;stroke-width:1;stroke-linecap:butt;stroke-linejoin:miter;stroke-opacity:1"
         d="m 96.41551,43.099145 70.14093,15.482917"
         id="path1975" />
    </g>
  </g>
</svg>
